place,lat,lon,date,text,url
Mount Kinabalu,6.075,116.55833,08.02.2012,Mount Kinabalu,08022012MtKinabalu.JPG
Teide,28.27233,-16.642,24.08.2012,Tenerife,24082012Teide.JPG
Monte Cinto,42.256,8.959,03.07.2012,Korsika,03072012MonteCinto.JPG
Lucomagno,46.334,8.480,22.07.2012,,22072012LucoMagno.JPG
Halong Bay,20.843,107.149,31.12.2012,,31122012HalongBay.JPG
